%YAML 1.1
%TAG !u! tag:unity3d.com,2011:
--- !u!1386491679 &1
PresetManager:
  m_ObjectHideFlags: 0
  serializedVersion: 2
  m_DefaultPresets:
  - first:
      m_NativeTypeID: 114
      m_ManagedTypePPtr: {fileID: -57143145, guid: a040fb66244a7f54289914d98ea4ef7d, type: 3}
      m_ManagedTypeFallback: 
    second:
    - m_Preset: {fileID: 2655988077585873504, guid: 73f30f76541e14ef7a56961957756900, type: 2}
      m_Filter: 
      m_Disabled: 0
